<?xml version="1.0" encoding="utf-8"?>
<!-- Generator: Adobe Illustrator 16.0.4, SVG Export Plug-In . SVG Version: 6.00 Build 0)  -->
<!DOCTYPE svg PUBLIC "-//W3C//DTD SVG 1.1//EN" "http://www.w3.org/Graphics/SVG/1.1/DTD/svg11.dtd">
<svg version="1.1" id="Layer_1" xmlns="http://www.w3.org/2000/svg" xmlns:xlink="http://www.w3.org/1999/xlink" x="0px" y="0px"
	 width="239.781px" height="249px" viewBox="179.84 178.5 239.781 249" enable-background="new 179.84 178.5 239.781 249"
	 xml:space="preserve">
<g>
	<path fill="#5E5F60" stroke="#5E5F60" stroke-miterlimit="10" d="M361.659,353.113c0,6.627-5.371,12-12,12H191.84
		c-6.627,0-12-5.373-12-12V195.294c0-6.628,5.373-12,12-12h157.819c6.629,0,12,5.372,12,12V353.113z"/>
	<g>
		<path fill="#FFFFFF" d="M414.569,405.705c0,6.627-5.372,12-12,12H244.75c-6.627,0-12-5.373-12-12v-157.82c0-6.627,5.373-12,12-12
			h157.819c6.628,0,12,5.373,12,12V405.705z"/>
		<g>
			<path fill="#5E5F60" d="M409.569,405.705c-0.501,9.304-13.226,7-19.535,7c-13.133,0-26.267,0-39.399,0
				c-30.118,0-60.238,0-90.356,0c-4.01,0-8.021,0-12.031,0c-2.813,0-5.637,0.3-8.002-1.627c-4.521-3.684-2.496-15.329-2.496-20.281
				c0-30.01,0-60.021,0-90.029c0-13.257,0-26.514,0-39.77c0-6.369-2.248-17.814,5.755-20.014c1.712-0.471,4.043-0.098,5.772-0.098
				c4.307,0,8.614,0,12.921,0c14.053,0,28.106,0,42.159,0c29.113,0,58.228,0,87.341,0c5.899,0,17.871-1.988,17.871,7.075
				c0,6.691,0,13.382,0,20.072C409.569,313.924,409.569,359.814,409.569,405.705c0,6.448,10,6.448,10,0c0-49.16,0-98.321,0-147.481
				c0-8.762,1.149-18.73-7.39-24.34c-6.454-4.24-15.341-2.998-22.724-2.998c-29.654,0-59.309,0-88.963,0
				c-13.612,0-27.224,0-40.836,0c-6.537,0-14.951-1.202-21.193,1.247c-10.993,4.313-10.715,14.902-10.715,24.565
				c0,12.204,0,24.407,0,36.611c0,30.75,0,61.5,0,92.25c0,6.69,0,13.383,0,20.072c0,9.27,7.712,17.075,17.008,17.075
				c1.758,0,3.516,0,5.273,0c50.517,0,101.033,0,151.55,0c9.976,0,17.45-7.016,17.988-17
				C419.916,399.258,409.915,399.292,409.569,405.705z"/>
		</g>
	</g>
</g>
</svg>
