<?xml version="1.0" encoding="utf-8"?>
<!-- Generator: Adobe Illustrator 16.0.4, SVG Export Plug-In . SVG Version: 6.00 Build 0)  -->
<!DOCTYPE svg PUBLIC "-//W3C//DTD SVG 1.1//EN" "http://www.w3.org/Graphics/SVG/1.1/DTD/svg11.dtd">
<svg version="1.1" id="Layer_1" xmlns="http://www.w3.org/2000/svg" xmlns:xlink="http://www.w3.org/1999/xlink" x="0px" y="0px"
	 width="600px" height="600px" viewBox="0 0 600 600" enable-background="new 0 0 600 600" xml:space="preserve">
<g>
	<g>
		<g>
			<path fill="#5E5F5F" d="M227.364,251.567c21.141,21.141,42.281,42.281,63.421,63.422
				c44.461,44.461,88.923,88.923,133.384,133.385c39.343,39.342,78.685,78.685,118.027,118.026
				c9.357,9.358,18.716,18.716,28.074,28.074c5.779,5.779,15.434,5.779,21.213,0s5.779-15.434,0-21.213
				c-21.141-21.141-42.281-42.281-63.422-63.422c-44.461-44.461-88.923-88.923-133.384-133.385
				c-39.343-39.342-78.685-78.684-118.027-118.026c-9.358-9.358-18.716-18.716-28.075-28.074c-5.779-5.779-15.434-5.779-21.213,0
				C221.585,236.133,221.585,245.789,227.364,251.567L227.364,251.567z"/>
		</g>
	</g>
	<g>
		<polygon fill="#FFFFFF" points="63.416,36.453 171.683,80.403 269.271,16.132 260.929,132.688 352.215,205.641 238.782,233.721 
			197.61,343.088 135.853,243.884 19.122,238.517 94.379,149.131 		"/>
		<g>
			<path fill="#5E5F5F" d="M61.422,43.685c21.712,8.814,43.425,17.628,65.137,26.442c12.247,4.971,24.493,9.942,36.739,14.914
				c2.126,0.863,4.253,1.727,6.379,2.59c3.525,1.431,6.905-1.486,9.626-3.279c31.25-20.582,62.501-41.163,93.752-61.745
				c-3.762-2.159-7.523-4.317-11.285-6.476c-1.673,23.375-3.346,46.75-5.02,70.125c-0.943,13.184-1.887,26.368-2.831,39.552
				c-0.164,2.29-0.328,4.579-0.491,6.868c-0.289,4.03,3.127,6.059,5.785,8.183c29.232,23.362,58.464,46.723,87.697,70.085
				c1.104-4.178,2.207-8.357,3.31-12.535c-22.748,5.631-45.497,11.263-68.245,16.894c-12.831,3.176-25.662,6.353-38.492,9.528
				c-2.228,0.552-4.456,1.104-6.684,1.655c-4.28,1.06-5.372,5.566-6.723,9.157c-13.233,35.15-26.465,70.301-39.698,105.451
				c4.569-0.597,9.139-1.194,13.708-1.791c-12.385-19.896-24.771-39.79-37.156-59.685c-6.986-11.222-13.971-22.443-20.957-33.664
				c-1.213-1.949-2.426-3.897-3.639-5.846c-2.476-3.977-6.652-3.732-10.662-3.917c-37.517-1.725-75.034-3.45-112.551-5.175
				c1.768,4.268,3.536,8.536,5.303,12.803c15.093-17.926,30.185-35.852,45.277-53.778c8.513-10.111,17.025-20.221,25.538-30.332
				c1.479-1.756,2.957-3.512,4.435-5.267c3.201-3.802,1.943-7.28,0.828-11.34C90.551,106.888,80.6,70.674,70.648,34.459
				c-2.56-9.316-17.031-5.356-14.464,3.987c10.321,37.56,20.642,75.119,30.963,112.678c0.643-2.432,1.286-4.865,1.929-7.297
				c-25.085,29.795-50.171,59.59-75.257,89.386c-4.218,5.009-1.538,12.489,5.303,12.803c38.91,1.789,77.82,3.578,116.73,5.367
				c-2.159-1.238-4.317-2.477-6.476-3.715c20.586,33.068,41.172,66.137,61.758,99.204c3.635,5.839,11.456,4.192,13.708-1.791
				c13.724-36.456,27.448-72.912,41.172-109.368c-1.746,1.746-3.492,3.492-5.238,5.238c37.811-9.36,75.622-18.72,113.433-28.08
				c5.071-1.255,7.779-8.962,3.31-12.535c-30.429-24.318-60.858-48.635-91.287-72.953c0.732,1.768,1.464,3.536,2.197,5.303
				c2.781-38.852,5.562-77.704,8.343-116.556c0.399-5.574-6.708-9.49-11.285-6.476c-32.53,21.424-65.06,42.848-97.589,64.271
				c1.926-0.252,3.853-0.504,5.779-0.756c-36.089-14.65-72.178-29.3-108.267-43.95c-3.794-1.541-8.237,1.644-9.226,5.238
				C55.003,38.751,57.638,42.149,61.422,43.685z"/>
		</g>
	</g>
</g>
</svg>
