<?xml version="1.0" encoding="utf-8"?>
<!-- Generator: Adobe Illustrator 16.0.4, SVG Export Plug-In . SVG Version: 6.00 Build 0)  -->
<!DOCTYPE svg PUBLIC "-//W3C//DTD SVG 1.1//EN" "http://www.w3.org/Graphics/SVG/1.1/DTD/svg11.dtd">
<svg version="1.1" id="Layer_1" xmlns="http://www.w3.org/2000/svg" xmlns:xlink="http://www.w3.org/1999/xlink" x="0px" y="0px"
	 width="600px" height="600px" viewBox="0 0 600 600" enable-background="new 0 0 600 600" xml:space="preserve">
<g>
	<g>
		<g>
			<path fill="#5E5F60" d="M551.817,446.466c-114.98,0-229.963,0-344.944,0c-24.605,0-49.21,0-73.814,0
				c9.598,9.594,19.193,19.189,28.79,28.788c0-114.984,0-229.965,0-344.948c0-24.604,0-49.21,0-73.813
				c0-37.132-57.579-37.132-57.579,0c0,114.981,0,229.964,0,344.949c0,24.603,0,49.207,0,73.812c0,15.692,13.096,28.79,28.789,28.79
				c114.98,0,229.963,0,344.944,0c24.605,0,49.21,0,73.815,0C588.949,504.044,588.949,446.466,551.817,446.466L551.817,446.466z"/>
		</g>
	</g>
	<g>
		<g>
			<path fill="#5E5F60" d="M41.433,168.495c114.98,0,229.964,0,344.946,0c24.604,0,49.208,0,73.813,0
				c-9.597-9.597-19.191-19.192-28.79-28.789c0,114.98,0,229.963,0,344.945c0,24.604,0,49.208,0,73.814
				c0,37.129,57.58,37.129,57.58,0c0-114.983,0-229.966,0-344.946c0-24.605,0-49.21,0-73.813c0-15.694-13.098-28.79-28.79-28.79
				c-114.98,0-229.964,0-344.946,0c-24.604,0-49.208,0-73.813,0C4.301,110.916,4.301,168.495,41.433,168.495L41.433,168.495z"/>
		</g>
	</g>
	<g>
		<g>
			<path fill="#5E5F60" d="M145.273,493.06c70.297-72.48,140.594-144.961,210.895-217.44
				c74.887-77.211,149.773-154.424,224.662-231.636c0.209-0.214,0.416-0.431,0.623-0.645c15.511-15.991-8.893-40.443-24.429-24.428
				c-70.296,72.481-140.595,144.96-210.893,217.44c-74.887,77.209-149.774,154.424-224.662,231.636
				c-0.207,0.216-0.417,0.43-0.625,0.642C105.336,484.62,129.74,509.073,145.273,493.06L145.273,493.06z"/>
		</g>
	</g>
</g>
</svg>
