<?xml version="1.0" encoding="utf-8"?>
<!-- Generator: Adobe Illustrator 16.0.4, SVG Export Plug-In . SVG Version: 6.00 Build 0)  -->
<!DOCTYPE svg PUBLIC "-//W3C//DTD SVG 1.1//EN" "http://www.w3.org/Graphics/SVG/1.1/DTD/svg11.dtd">
<svg version="1.1" id="Layer_1" xmlns="http://www.w3.org/2000/svg" xmlns:xlink="http://www.w3.org/1999/xlink" x="0px" y="0px"
	 width="312px" height="311px" viewBox="0 0 312 311" enable-background="new 0 0 312 311" xml:space="preserve">
<g>
	<g>
		<path fill="#5E5F5F" d="M191.574,101.363l-37.268,175.159h-48.109l36.928-175.159H191.574z M148.547,74.26l8.809-39.64h48.447
			l-8.809,39.64H148.547z"/>
		<g>
			<path fill="#5E5F5F" d="M189.163,100.699c-10.39,48.833-20.779,97.665-31.169,146.498c-2.033,9.554-4.065,19.107-6.098,28.661
				c0.804-0.611,1.607-1.224,2.411-1.835c-16.037,0-32.073,0-48.109,0c0.804,1.055,1.607,2.109,2.411,3.165
				c10.295-48.833,20.59-97.665,30.885-146.498c2.014-9.554,4.028-19.108,6.042-28.662c-0.804,0.612-1.607,1.224-2.411,1.835
				c16.149,0,32.3,0,48.449,0c3.225,0,3.225-5,0-5c-16.149,0-32.3,0-48.449,0c-1.06,0-2.183,0.756-2.411,1.835
				c-10.295,48.833-20.59,97.665-30.885,146.498c-2.014,9.554-4.028,19.107-6.042,28.661c-0.333,1.576,0.71,3.165,2.411,3.165
				c16.037,0,32.073,0,48.109,0c1.062,0,2.181-0.757,2.411-1.835c10.39-48.833,20.779-97.665,31.169-146.498
				c2.033-9.554,4.065-19.108,6.099-28.662C194.654,98.883,189.834,97.545,189.163,100.699z"/>
			<path fill="#5E5F5F" d="M150.958,74.924c2.936-13.213,5.873-26.426,8.809-39.64c-0.804,0.612-1.607,1.224-2.411,1.835
				c16.149,0,32.298,0,48.447,0c-0.804-1.055-1.607-2.11-2.411-3.165c-2.936,13.213-5.872,26.426-8.809,39.64
				c0.804-0.612,1.607-1.224,2.411-1.835c-16.149,0-32.298,0-48.447,0c-3.224,0-3.224,5,0,5c16.149,0,32.298,0,48.447,0
				c1.069,0,2.171-0.757,2.411-1.835c2.936-13.213,5.872-26.426,8.809-39.64c0.35-1.575-0.725-3.165-2.411-3.165
				c-16.149,0-32.298,0-48.447,0c-1.069,0-2.171,0.757-2.411,1.835c-2.936,13.213-5.873,26.426-8.809,39.64
				C145.438,76.737,150.258,78.071,150.958,74.924z"/>
		</g>
	</g>
</g>
</svg>
