<?xml version="1.0" encoding="utf-8"?>
<!-- Generator: Adobe Illustrator 16.0.4, SVG Export Plug-In . SVG Version: 6.00 Build 0)  -->
<!DOCTYPE svg PUBLIC "-//W3C//DTD SVG 1.1//EN" "http://www.w3.org/Graphics/SVG/1.1/DTD/svg11.dtd">
<svg version="1.1" id="Layer_1" xmlns="http://www.w3.org/2000/svg" xmlns:xlink="http://www.w3.org/1999/xlink" x="0px" y="0px"
	 width="600px" height="600px" viewBox="0 0 600 600" enable-background="new 0 0 600 600" xml:space="preserve">
<path fill="#5E5F60" d="M573.332,382.785c0,15.386-12.472,27.856-27.855,27.856H54.524c-15.385,0-27.856-12.472-27.856-27.856
	V35.461c0-15.386,12.473-27.856,27.856-27.856h490.952c15.385,0,27.856,12.472,27.856,27.856V382.785L573.332,382.785z"/>
<path fill="#5E5F60" d="M355.712,524.695V423.716h-55.714v0.004H244.29v100.977c0,0-69.639,62.672-62.673,66.154
	c6.957,3.479,118.381,0,118.381,0s111.424,3.479,118.39,0C425.347,587.367,355.712,524.695,355.712,524.695z"/>
<path fill="#FFFFFF" d="M528.068,269.025c0,15.386-12.473,27.857-27.855,27.857H99.792c-15.388,0-27.858-12.473-27.858-27.857V74.04
	c0-15.386,12.472-27.856,27.858-27.856h400.421c15.384,0,27.857,12.472,27.857,27.856v194.985H528.068z"/>
</svg>
