<?xml version="1.0" encoding="utf-8"?>
<!-- Generator: Adobe Illustrator 16.0.4, SVG Export Plug-In . SVG Version: 6.00 Build 0)  -->
<!DOCTYPE svg PUBLIC "-//W3C//DTD SVG 1.1//EN" "http://www.w3.org/Graphics/SVG/1.1/DTD/svg11.dtd">
<svg version="1.1" id="Layer_1" xmlns="http://www.w3.org/2000/svg" xmlns:xlink="http://www.w3.org/1999/xlink" x="0px" y="0px"
	 width="600px" height="349px" viewBox="0 0 600 349" enable-background="new 0 0 600 349" xml:space="preserve">
<g>
	<path fill="#5E5F5F" d="M349.717,116.014l64.977-105.271l176.664,327.483l-367.324-3.832l56.042-99.693
		C52.656,117.152,11.296,338.229,11.296,338.229H9.143C-2.521-40.838,210.274,30.024,349.717,116.014z"/>
	<g>
		<path fill="#5E5F5F" d="M351.875,117.275c21.658-35.09,43.316-70.181,64.977-105.271c-1.439,0-2.879,0-4.318,0
			c17.223,31.922,34.441,63.843,51.662,95.765c30.086,55.771,60.17,111.539,90.256,167.309
			c11.582,21.472,23.164,42.94,34.746,64.412c0.721-1.254,1.439-2.508,2.158-3.763c-36.572-0.382-73.145-0.763-109.719-1.146
			c-63.129-0.657-126.258-1.316-189.387-1.976c-22.739-0.237-45.479-0.476-68.217-0.713c0.72,1.255,1.438,2.509,2.158,3.763
			c18.682-33.23,37.361-66.463,56.042-99.694c0.641-1.139,0.329-2.789-0.896-3.42c-60.495-31.134-137.556-53.07-198.915-12.041
			c-34.443,23.03-56.774,60.979-68.996,99.863c-1.771,5.637-3.447,11.383-4.54,17.196c0.804-0.61,1.607-1.225,2.411-1.835
			c-0.718,0-1.437,0-2.154,0c0.833,0.833,1.667,1.667,2.5,2.5c-1.442-48.245-0.021-97.095,9.506-144.544
			c6.325-31.503,16.567-63.035,34.95-89.684c13.449-19.497,31.886-35.402,53.923-44.355c20.906-8.494,43.757-10.454,66.095-8.685
			c50.397,3.991,98.828,25.664,142.563,49.792c10.068,5.555,19.982,11.388,29.773,17.419c2.754,1.695,5.264-2.63,2.523-4.317
			c-43.416-26.744-90.159-50.666-140.089-62.347c-44.291-10.361-93.238-9.279-130.631,19.565
			C29.021,110.594,14.693,182.799,9.005,243.42c-2.955,31.494-3.311,63.206-2.365,94.808c0.041,1.36,1.106,2.5,2.5,2.5
			c0.718,0,1.437,0,2.154,0c1.042,0,2.208-0.755,2.411-1.835c5.023-26.742,17.324-53.335,32.768-75.521
			c13.811-19.839,31.942-36.599,53.684-47.359c28-13.858,60.104-15.688,90.531-10.569c30.896,5.197,60.393,17.146,88.123,31.42
			c-0.299-1.141-0.598-2.281-0.896-3.422c-18.682,33.231-37.361,66.464-56.042,99.694c-0.933,1.657,0.246,3.741,2.159,3.763
			c36.572,0.382,73.146,0.763,109.719,1.145c63.129,0.658,126.258,1.317,189.387,1.977c22.738,0.236,45.479,0.476,68.217,0.713
			c1.951,0.021,3.043-2.123,2.16-3.763c-17.221-31.923-34.441-63.845-51.662-95.766c-30.086-55.771-60.17-111.538-90.256-167.308
			c-11.582-21.472-23.164-42.941-34.746-64.413c-0.918-1.698-3.363-1.544-4.318,0c-21.656,35.09-43.314,70.18-64.975,105.271
			C345.859,117.505,350.186,120.014,351.875,117.275z"/>
	</g>
</g>
</svg>
