<?xml version="1.0" encoding="utf-8"?>
<!-- Generator: Adobe Illustrator 16.0.4, SVG Export Plug-In . SVG Version: 6.00 Build 0)  -->
<!DOCTYPE svg PUBLIC "-//W3C//DTD SVG 1.1//EN" "http://www.w3.org/Graphics/SVG/1.1/DTD/svg11.dtd">
<svg version="1.1" id="Layer_1" xmlns="http://www.w3.org/2000/svg" xmlns:xlink="http://www.w3.org/1999/xlink" x="0px" y="0px"
	 width="600px" height="600px" viewBox="0 0 600 600" enable-background="new 0 0 600 600" xml:space="preserve">
<g>
	<g>
		<path fill="#FFFFFF" d="M576.494,226.782c0,29.928-14.406,54.195-32.18,54.195H350.942c-17.766,0-32.17-24.264-32.17-54.195
			V71.054c0-29.928,14.404-54.195,32.17-54.195h193.372c17.771,0,32.18,24.264,32.18,54.195V226.782L576.494,226.782z"/>
		<g>
			<path fill="#5E5F60" d="M568.811,226.782c-0.389,13.875-4.78,46.513-24.557,46.513c-3.77,0-7.531,0-11.301,0
				c-19.882,0-39.763,0-59.649,0c-40.045,0-80.093,0-120.144,0c-36.471,0-26.702-84.254-26.702-107.806c0-23.558,0-47.115,0-70.67
				c0-19.191-1.435-38.676,7.367-56.442c7.982-16.11,20.652-13.836,35.312-13.836c20.592,0,41.182,0,61.774,0
				c37.064,0,74.123,0,111.188,0c35.457,0,26.711,75.563,26.711,99.008C568.811,157.963,568.811,192.374,568.811,226.782
				c0,9.908,15.365,9.908,15.365,0c0-37.237,0-74.476,0-111.715c0-33.729,7.497-102.1-39.861-105.891
				c-34.298-2.748-69.925,0-104.312,0c-22.318,0-44.634,0-66.957,0c-10.416,0-25.536-2.265-35.01,3.213
				c-36.45,21.073-26.945,81.339-26.945,116.995c0,23.778,0,47.558,0,71.335c0,16.122-0.714,32.152,2.521,48.045
				c4.147,20.366,18.168,39.892,40.324,39.892c16.017,0,32.029,0,48.045,0c44.152,0,88.307,0,132.459,0
				c7.598,0,15.926,0.749,22.782-3.214c20.351-11.761,26.334-36.747,26.952-58.664C584.455,216.869,569.091,216.896,568.811,226.782
				z"/>
		</g>
	</g>
	<g>
		<path fill="#85AB8F" d="M576.494,530.115c0,29.927-14.406,54.194-32.18,54.194H350.942c-17.766,0-32.17-24.262-32.17-54.194
			v-155.73c0-29.926,14.404-54.194,32.17-54.194h193.372c17.771,0,32.18,24.263,32.18,54.194V530.115L576.494,530.115z"/>
		<g>
			<path fill="#5E5F60" d="M568.811,530.115c-0.389,13.874-4.78,46.513-24.557,46.513c-3.77,0-7.531,0-11.301,0
				c-19.882,0-39.763,0-59.649,0c-40.045,0-80.093,0-120.144,0c-36.471,0-26.702-84.255-26.702-107.804c0-23.557,0-47.114,0-70.669
				c0-19.191-1.435-38.676,7.367-56.442c7.982-16.105,20.652-13.836,35.312-13.836c20.592,0,41.182,0,61.774,0
				c37.064,0,74.123,0,111.188,0c35.457,0,26.711,75.563,26.711,99.007C568.811,461.296,568.811,495.705,568.811,530.115
				c0,9.91,15.365,9.91,15.365,0c0-37.238,0-74.474,0-111.716c0-33.733,7.497-102.101-39.861-105.891
				c-34.298-2.746-69.925,0-104.312,0c-22.318,0-44.634,0-66.957,0c-10.416,0-25.536-2.261-35.01,3.214
				c-36.45,21.072-26.945,81.338-26.945,116.995c0,23.778,0,47.559,0,71.335c0,16.12-0.714,32.156,2.521,48.048
				c4.147,20.365,18.168,39.888,40.324,39.888c16.017,0,32.029,0,48.045,0c44.152,0,88.307,0,132.459,0
				c7.598,0,15.926,0.752,22.782-3.213c20.351-11.761,26.334-36.747,26.952-58.666C584.455,520.201,569.091,520.23,568.811,530.115z
				"/>
		</g>
	</g>
	<g>
		<g>
			<path fill="#D71920" d="M281.906,226.782c0,29.928-14.405,54.195-32.167,54.195H56.363c-17.761,0-32.17-24.264-32.17-54.195
				V71.054c0-29.928,14.406-54.195,32.17-54.195h193.38c17.761,0,32.167,24.264,32.167,54.195v155.728H281.906z"/>
			<g>
				<path fill="#5E5F60" d="M274.225,226.782c-0.39,13.866-4.775,46.513-24.549,46.513c-3.765,0-7.533,0-11.297,0
					c-19.881,0-39.767,0-59.651,0c-40.051,0-80.098,0-120.15,0c-36.471,0-26.704-84.254-26.704-107.806c0-23.558,0-47.115,0-70.67
					c0-19.191-1.433-38.673,7.372-56.442c7.984-16.11,20.654-13.836,35.311-13.836c20.592,0,41.185,0,61.776,0
					c37.063,0,74.126,0,111.193,0c35.44,0,26.701,75.574,26.701,99.008C274.225,157.963,274.225,192.374,274.225,226.782
					c0,9.908,15.365,9.908,15.365,0c0-37.237,0-74.476,0-111.715c0-33.722,7.498-102.1-39.85-105.891
					c-34.298-2.748-69.925,0-104.314,0c-22.319,0-44.639,0-66.96,0c-10.418,0-25.537-2.265-35.01,3.213
					C7.002,33.462,16.508,93.729,16.508,129.385c0,23.778,0,47.558,0,71.335c0,16.122-0.713,32.152,2.522,48.045
					c4.149,20.366,18.168,39.892,40.324,39.892c16.016,0,32.032,0,48.046,0c44.155,0,88.308,0,132.464,0
					c7.595,0,15.923,0.749,22.779-3.214c20.346-11.764,26.324-36.751,26.943-58.664C289.87,216.869,274.505,216.896,274.225,226.782
					z"/>
			</g>
		</g>
		<g>
			<path fill="#5085B6" d="M281.906,530.115c0,29.927-14.405,54.194-32.167,54.194H56.363c-17.761,0-32.17-24.262-32.17-54.194
				v-155.73c0-29.926,14.406-54.194,32.17-54.194h193.38c17.761,0,32.167,24.263,32.167,54.194v155.73H281.906z"/>
			<g>
				<path fill="#5E5F60" d="M274.225,530.115c-0.39,13.865-4.775,46.513-24.549,46.513c-3.765,0-7.533,0-11.297,0
					c-19.881,0-39.767,0-59.651,0c-40.051,0-80.098,0-120.15,0c-36.471,0-26.704-84.255-26.704-107.804c0-23.557,0-47.114,0-70.669
					c0-19.191-1.433-38.676,7.372-56.442c7.984-16.105,20.654-13.836,35.311-13.836c20.592,0,41.185,0,61.776,0
					c37.063,0,74.126,0,111.193,0c35.44,0,26.701,75.575,26.701,99.007C274.225,461.296,274.225,495.705,274.225,530.115
					c0,9.91,15.365,9.91,15.365,0c0-37.238,0-74.474,0-111.716c0-33.722,7.498-102.098-39.85-105.891
					c-34.298-2.746-69.925,0-104.314,0c-22.319,0-44.639,0-66.96,0c-10.418,0-25.537-2.261-35.01,3.214
					c-36.453,21.072-26.947,81.338-26.947,116.995c0,23.778,0,47.559,0,71.335c0,16.12-0.713,32.156,2.522,48.048
					c4.149,20.365,18.168,39.888,40.324,39.888c16.016,0,32.032,0,48.046,0c44.155,0,88.308,0,132.464,0
					c7.595,0,15.923,0.752,22.779-3.213c20.346-11.764,26.324-36.75,26.943-58.666C289.87,520.201,274.505,520.23,274.225,530.115z"
					/>
			</g>
		</g>
	</g>
</g>
</svg>
